{
    "output": {
        "blocklist": [],
        "equalizer": {
            "balance": 0.0,
            "bypass": false,
            "input-gain": 0.0,
            "left": {
                "band0": {
                    "frequency": 30.0,
                    "gain": -5.5,
                    "mode": "RLC (BT)",
                    "mute": false,
                    "q": 0.7099999999999999,
                    "slope": "x1",
                    "solo": false,
                    "type": "Bell"
                },
                "band1": {
                    "frequency": 66.0,
                    "gain": -9.8,
                    "mode": "RLC (BT)",
                    "mute": false,
                    "q": 0.4,
                    "slope": "x1",
                    "solo": false,
                    "type": "Bell"
                },
                "band2": {
                    "frequency": 110.0,
                    "gain": 10.0,
                    "mode": "RLC (BT)",
                    "mute": false,
                    "q": 0.71,
                    "slope": "x1",
                    "solo": false,
                    "type": "Bell"
                },
                "band3": {
                    "frequency": 930.0,
                    "gain": 3.3,
                    "mode": "RLC (BT)",
                    "mute": false,
                    "q": 1.0,
                    "slope": "x1",
                    "solo": false,
                    "type": "Bell"
                },
                "band4": {
                    "frequency": 1350.0,
                    "gain": -1.5,
                    "mode": "RLC (BT)",
                    "mute": false,
                    "q": 1.6,
                    "slope": "x1",
                    "solo": false,
                    "type": "Bell"
                },
                "band5": {
                    "frequency": 2340.0,
                    "gain": -4.3,
                    "mode": "RLC (BT)",
                    "mute": false,
                    "q": 1.8,
                    "slope": "x1",
                    "solo": false,
                    "type": "Bell"
                },
                "band6": {
                    "frequency": 3430.0,
                    "gain": 5.0,
                    "mode": "RLC (BT)",
                    "mute": false,
                    "q": 1.4,
                    "slope": "x1",
                    "solo": false,
                    "type": "Bell"
                },
                "band7": {
                    "frequency": 4900.0,
                    "gain": -4.0,
                    "mode": "RLC (BT)",
                    "mute": false,
                    "q": 3.5,
                    "slope": "x1",
                    "solo": false,
                    "type": "Bell"
                },
                "band8": {
                    "frequency": 8000.0,
                    "gain": -6.0,
                    "mode": "RLC (BT)",
                    "mute": false,
                    "q": 0.71,
                    "slope": "x1",
                    "solo": false,
                    "type": "Hi-shelf"
                }
            },
            "mode": "IIR",
            "num-bands": 9,
            "output-gain": 0.0,
            "pitch-left": 0.0,
            "pitch-right": 0.0,
            "right": {
                "band0": {
                    "frequency": 30.0,
                    "gain": -5.5,
                    "mode": "RLC (BT)",
                    "mute": false,
                    "q": 0.7099999999999999,
                    "slope": "x1",
                    "solo": false,
                    "type": "Bell"
                },
                "band1": {
                    "frequency": 66.0,
                    "gain": -9.8,
                    "mode": "RLC (BT)",
                    "mute": false,
                    "q": 0.4,
                    "slope": "x1",
                    "solo": false,
                    "type": "Bell"
                },
                "band2": {
                    "frequency": 110.0,
                    "gain": 10.0,
                    "mode": "RLC (BT)",
                    "mute": false,
                    "q": 0.71,
                    "slope": "x1",
                    "solo": false,
                    "type": "Bell"
                },
                "band3": {
                    "frequency": 930.0,
                    "gain": 3.3,
                    "mode": "RLC (BT)",
                    "mute": false,
                    "q": 1.0,
                    "slope": "x1",
                    "solo": false,
                    "type": "Bell"
                },
                "band4": {
                    "frequency": 1350.0,
                    "gain": -1.5,
                    "mode": "RLC (BT)",
                    "mute": false,
                    "q": 1.6,
                    "slope": "x1",
                    "solo": false,
                    "type": "Bell"
                },
                "band5": {
                    "frequency": 2340.0,
                    "gain": -4.3,
                    "mode": "RLC (BT)",
                    "mute": false,
                    "q": 1.8,
                    "slope": "x1",
                    "solo": false,
                    "type": "Bell"
                },
                "band6": {
                    "frequency": 3430.0,
                    "gain": 5.0,
                    "mode": "RLC (BT)",
                    "mute": false,
                    "q": 1.4,
                    "slope": "x1",
                    "solo": false,
                    "type": "Bell"
                },
                "band7": {
                    "frequency": 4900.0,
                    "gain": -4.0,
                    "mode": "RLC (BT)",
                    "mute": false,
                    "q": 3.5,
                    "slope": "x1",
                    "solo": false,
                    "type": "Bell"
                },
                "band8": {
                    "frequency": 8000.0,
                    "gain": -6.0,
                    "mode": "RLC (BT)",
                    "mute": false,
                    "q": 0.71,
                    "slope": "x1",
                    "solo": false,
                    "type": "Hi-shelf"
                }
            },
            "split-channels": false
        },
        "limiter": {
            "alr": false,
            "alr-attack": 5.0,
            "alr-knee": 0.0,
            "alr-release": 50.0,
            "attack": 5.0,
            "bypass": false,
            "dithering": "None",
            "external-sidechain": false,
            "gain-boost": true,
            "input-gain": -3.2,
            "lookahead": 5.0,
            "mode": "Herm Thin",
            "output-gain": 0.0,
            "oversampling": "None",
            "release": 5.0,
            "sidechain-preamp": 0.0,
            "stereo-link": 100.0,
            "threshold": 0.0
        },
        "plugins_order": [
            "limiter",
            "equalizer"
        ]
    }
}
